{
  "swagger": "2.0",
  "info": {},
  "paths": {
    "/delete": {
      "post": {
        "tags": [
          "vacancy"
        ],
        "summary": "Удалить вакансию.",
        "operationId": "vacancyDeleteRequest",
        "parameters": [
          {
            "name": "Body",
            "in": "body",
            "schema": {
              "$ref": "#/definitions/IDVacancy"
            }
          }
        ],
        "responses": {
          "200": {
            "$ref": "#/responses/vacancyDeleteResponse"
          }
        }
      }
    },
    "/get": {
      "post": {
        "tags": [
          "vacancy"
        ],
        "summary": "Поиск вакансии по ID.",
        "operationId": "vacancyIdGetRequest",
        "parameters": [
          {
            "name": "Body",
            "in": "body",
            "schema": {
              "$ref": "#/definitions/IDVacancy"
            }
          }
        ],
        "responses": {
          "200": {
            "$ref": "#/responses/vacancyIdGetResponse"
          }
        }
      }
    },
    "/list": {
      "get": {
        "description": "Список всех вакансий",
        "tags": [
          "vacancy"
        ],
        "operationId": "vacancyListRequest",
        "responses": {
          "200": {
            "$ref": "#/responses/vacancyListResponse"
          }
        }
      }
    },
    "/search": {
      "post": {
        "tags": [
          "vacancy"
        ],
        "summary": "Создание вакансии.",
        "operationId": "vacancySearchRequest",
        "parameters": [
          {
            "name": "Body",
            "in": "body",
            "schema": {
              "$ref": "#/definitions/Query"
            }
          }
        ],
        "responses": {
          "200": {
            "$ref": "#/responses/vacancyCreateResponse"
          }
        }
      }
    }
  },
  "definitions": {
    "AddressClass": {
      "type": "object",
      "properties": {
        "@type": {
          "type": "string",
          "x-go-name": "Type"
        },
        "addressCountry": {
          "$ref": "#/definitions/AddressCountry"
        },
        "addressLocality": {
          "type": "string",
          "x-go-name": "AddressLocality"
        },
        "streetAddress": {
          "type": "string",
          "x-go-name": "StreetAddress"
        }
      },
      "x-go-package": "gitlab.com/GoGerman/go-kata/module4/selenium/internal/models"
    },
    "AddressCountry": {
      "type": "object",
      "properties": {
        "@type": {
          "type": "string",
          "x-go-name": "Type"
        },
        "name": {
          "type": "string",
          "x-go-name": "Name"
        }
      },
      "x-go-package": "gitlab.com/GoGerman/go-kata/module4/selenium/internal/models"
    },
    "AddressUnion": {
      "type": "object",
      "properties": {
        "AddressClass": {
          "$ref": "#/definitions/AddressClass"
        },
        "String": {
          "type": "string"
        }
      },
      "x-go-package": "gitlab.com/GoGerman/go-kata/module4/selenium/internal/models"
    },
    "BaseSalary": {
      "type": "object",
      "properties": {
        "@type": {
          "type": "string",
          "x-go-name": "Type"
        },
        "currency": {
          "type": "string",
          "x-go-name": "Currency"
        },
        "value": {
          "$ref": "#/definitions/Value"
        }
      },
      "x-go-package": "gitlab.com/GoGerman/go-kata/module4/selenium/internal/models"
    },
    "HiringOrganization": {
      "type": "object",
      "properties": {
        "@type": {
          "type": "string",
          "x-go-name": "Type"
        },
        "logo": {
          "type": "string",
          "x-go-name": "Logo"
        },
        "name": {
          "type": "string",
          "x-go-name": "Name"
        },
        "sameAs": {
          "type": "string",
          "x-go-name": "SameAs"
        }
      },
      "x-go-package": "gitlab.com/GoGerman/go-kata/module4/selenium/internal/models"
    },
    "IDVacancy": {
      "type": "object",
      "properties": {
        "id": {
          "type": "string",
          "x-go-name": "ID"
        }
      },
      "x-go-package": "gitlab.com/GoGerman/go-kata/module4/selenium/internal/models"
    },
    "Identifier": {
      "type": "object",
      "properties": {
        "@type": {
          "type": "string",
          "x-go-name": "Type"
        },
        "name": {
          "type": "string",
          "x-go-name": "Name"
        },
        "value": {
          "type": "string",
          "x-go-name": "Value"
        }
      },
      "x-go-package": "gitlab.com/GoGerman/go-kata/module4/selenium/internal/models"
    },
    "JobLocationElement": {
      "type": "object",
      "properties": {
        "@type": {
          "type": "string",
          "x-go-name": "Type"
        },
        "address": {
          "type": "string",
          "x-go-name": "Address"
        }
      },
      "x-go-package": "gitlab.com/GoGerman/go-kata/module4/selenium/internal/models"
    },
    "JobLocationUnion": {
      "type": "object",
      "properties": {
        "JobLocationElementArray": {
          "type": "array",
          "items": {
            "$ref": "#/definitions/JobLocationElement"
          }
        },
        "PurpleJobLocation": {
          "$ref": "#/definitions/PurpleJobLocation"
        }
      },
      "x-go-package": "gitlab.com/GoGerman/go-kata/module4/selenium/internal/models"
    },
    "PurpleJobLocation": {
      "type": "object",
      "properties": {
        "@type": {
          "type": "string",
          "x-go-name": "Type"
        },
        "address": {
          "$ref": "#/definitions/AddressUnion"
        }
      },
      "x-go-package": "gitlab.com/GoGerman/go-kata/module4/selenium/internal/models"
    },
    "Query": {
      "type": "object",
      "properties": {
        "query": {
          "type": "string",
          "x-go-name": "Query"
        }
      },
      "x-go-package": "gitlab.com/GoGerman/go-kata/module4/selenium/internal/models"
    },
    "Vacancy": {
      "type": "object",
      "properties": {
        "@context": {
          "type": "string",
          "x-go-name": "Context"
        },
        "@type": {
          "type": "string",
          "x-go-name": "Type"
        },
        "Id": {
          "type": "string"
        },
        "baseSalary": {
          "$ref": "#/definitions/BaseSalary"
        },
        "datePosted": {
          "type": "string",
          "x-go-name": "DatePosted"
        },
        "description": {
          "type": "string",
          "x-go-name": "Description"
        },
        "employmentType": {
          "type": "string",
          "x-go-name": "EmploymentType"
        },
        "hiringOrganization": {
          "$ref": "#/definitions/HiringOrganization"
        },
        "identifier": {
          "$ref": "#/definitions/Identifier"
        },
        "jobLocation": {
          "$ref": "#/definitions/JobLocationUnion"
        },
        "jobLocationType": {
          "type": "string",
          "x-go-name": "JobLocationType"
        },
        "title": {
          "type": "string",
          "x-go-name": "Title"
        },
        "validThrough": {
          "type": "string",
          "x-go-name": "ValidThrough"
        }
      },
      "x-go-package": "gitlab.com/GoGerman/go-kata/module4/selenium/internal/models"
    },
    "Value": {
      "type": "object",
      "properties": {
        "@type": {
          "type": "string",
          "x-go-name": "Type"
        },
        "maxValue": {
          "type": "number",
          "format": "double",
          "x-go-name": "MaxValue"
        },
        "minValue": {
          "type": "number",
          "format": "double",
          "x-go-name": "MinValue"
        },
        "unitText": {
          "type": "string",
          "x-go-name": "UnitText"
        }
      },
      "x-go-package": "gitlab.com/GoGerman/go-kata/module4/selenium/internal/models"
    }
  },
  "responses": {
    "vacancyDeleteResponse": {
      "description": "",
      "schema": {
        "$ref": "#/definitions/Vacancy"
      }
    },
    "vacancyIdGetResponse": {
      "description": "",
      "schema": {
        "$ref": "#/definitions/Vacancy"
      }
    },
    "vacancyListResponse": {
      "description": "",
      "schema": {
        "type": "array",
        "items": {
          "$ref": "#/definitions/Vacancy"
        }
      }
    },
    "vacancySearchResponse": {
      "description": "",
      "schema": {
        "$ref": "#/definitions/Vacancy"
      }
    }
  }
}